-13.000000x^3+-13.000000x^2+-91.000000x+-91.000000 low: -1.281250 up: 0.296875 min: -119.501522 max: 31.595856
-52.000000x^3+69.000000x^2+72.000000x+93.000000 low: -0.859375 up: 0.109375 min: 101.632401 max: 115.086105
53.000000x^3+-31.000000x^2+-8.000000x+28.000000 low: -0.203125 up: 1.203125 min: 22.872079 max: 65.803562
-21.000000x^3+-65.000000x^2+27.000000x+25.000000 low: -0.546875 up: 0.953125 min: -26.497837 max: 27.639463
100.000000x^3+97.000000x^2+-75.000000x+-54.000000 low: -1.500000 up: 0.343750 min: -65.211183 max: 19.232271
-78.000000x^3+-19.000000x^2+77.000000x+10.000000 low: -0.187500 up: 1.437500 min: -150.270020 max: 34.000460
-76.000000x^3+-6.000000x^2+72.000000x+-92.000000 low: 0.609375 up: 1.500000 min: -254.000000 max: -67.550613
-44.000000x^3+-74.000000x^2+37.000000x+82.000000 low: 0.343750 up: 1.250000 min: -73.312500 max: 84.187378
-62.000000x^3+51.000000x^2+-31.000000x+-16.000000 low: -1.078125 up: 1.000000 min: -58.000000 max: 154.397972
25.000000x^3+48.000000x^2+61.000000x+-87.000000 low: -0.140625 up: 0.375000 min: -94.698429 max: -56.056641
87.000000x^3+67.000000x^2+79.000000x+17.000000 low: 0.265625 up: 1.109375 min: 44.342190 max: 305.881413
-93.000000x^3+77.000000x^2+-19.000000x+-93.000000 low: -1.125000 up: 0.328125 min: -94.229588 max: 158.244141
-49.000000x^3+-35.000000x^2+-20.000000x+-19.000000 low: -0.359375 up: 0.343750 min: -32.001068 max: -14.058506
-67.000000x^3+-63.000000x^2+-81.000000x+-36.000000 low: 1.015625 up: 1.031250 min: -260.009857 max: -253.439709
-42.000000x^3+-38.000000x^2+5.000000x+-35.000000 low: 0.125000 up: 1.546875 min: -273.651543 max: -35.050781
51.000000x^3+97.000000x^2+-53.000000x+6.000000 low: -1.406250 up: 0.812500 min: -0.438338 max: 130.525909
20.000000x^3+72.000000x^2+98.000000x+86.000000 low: -0.875000 up: -0.546875 min: 41.976563 max: 50.668350
-81.000000x^3+50.000000x^2+50.000000x+9.000000 low: -0.515625 up: 1.046875 min: 0.679851 max: 40.718777
11.000000x^3+92.000000x^2+79.000000x+-29.000000 low: 0.390625 up: 0.937500 min: 16.553112 max: 134.985596
49.000000x^3+-75.000000x^2+65.000000x+-95.000000 low: -0.265625 up: 0.734375 min: -118.475712 max: -68.307011
57.000000x^3+-27.000000x^2+49.000000x+79.000000 low: -0.859375 up: -0.468750 min: -19.225765 max: 44.227814
-43.000000x^3+86.000000x^2+-90.000000x+19.000000 low: -1.062500 up: 1.062500 min: -31.115967 max: 263.287842
-67.000000x^3+0.000000x^2+100.000000x+-29.000000 low: -1.421875 up: -0.906250 min: -69.757355 max: 21.413731
-21.000000x^3+-33.000000x^2+-54.000000x+88.000000 low: 0.578125 up: 1.453125 min: -124.586582 max: 41.693966
-12.000000x^3+89.000000x^2+-99.000000x+22.000000 low: -0.875000 up: -0.593750 min: 114.669067 max: 184.804688
17.000000x^3+66.000000x^2+-42.000000x+-20.000000 low: -0.781250 up: -0.078125 min: -16.324024 max: 44.989471
-20.000000x^3+20.000000x^2+60.000000x+-79.000000 low: 1.015625 up: 1.078125 min: -18.384842 max: -16.128677
-29.000000x^3+-14.000000x^2+15.000000x+40.000000 low: 0.765625 up: 0.812500 min: 27.390381 max: 30.262768
-22.000000x^3+-14.000000x^2+92.000000x+15.000000 low: 0.000000 up: 0.062500 min: 15.000000 max: 20.689941
-82.000000x^3+81.000000x^2+77.000000x+-12.000000 low: -0.171875 up: 1.078125 min: -22.425209 max: 64.075044
-61.000000x^3+-39.000000x^2+-3.000000x+-33.000000 low: 0.937500 up: 1.531250 min: -348.050201 max: -120.352295
-69.000000x^3+-53.000000x^2+41.000000x+-25.000000 low: 1.484375 up: 1.484375 min: -306.592388 max: -306.592388
29.000000x^3+72.000000x^2+-20.000000x+27.000000 low: -0.046875 up: 0.437500 min: 25.680404 max: 34.459717
78.000000x^3+-61.000000x^2+-21.000000x+99.000000 low: -0.312500 up: 0.500000 min: 83.000000 max: 97.225098
81.000000x^3+100.000000x^2+31.000000x+-79.000000 low: -1.453125 up: 0.375000 min: -161.428303 max: -49.041016
13.000000x^3+93.000000x^2+49.000000x+33.000000 low: -1.468750 up: 0.609375 min: 26.285822 max: 120.463776
4.000000x^3+-89.000000x^2+78.000000x+-34.000000 low: -0.703125 up: -0.687500 min: -134.234451 max: -130.991211
76.000000x^3+-11.000000x^2+51.000000x+21.000000 low: -1.406250 up: -0.109375 min: -283.821167 max: 15.190842
-35.000000x^3+26.000000x^2+-54.000000x+16.000000 low: -1.234375 up: -0.125000 min: 23.224609 max: 188.099781
-10.000000x^3+10.000000x^2+61.000000x+40.000000 low: -0.875000 up: -0.125000 min: 0.980469 max: 32.550781
92.000000x^3+58.000000x^2+-10.000000x+-33.000000 low: -1.390625 up: 0.750000 min: -154.341537 max: 30.937500
1.000000x^3+-60.000000x^2+-15.000000x+-67.000000 low: 0.125000 up: 0.468750 min: -87.111847 max: -69.810547
46.000000x^3+-82.000000x^2+76.000000x+-98.000000 low: 0.250000 up: 0.437500 min: -83.406250 max: -76.593262
30.000000x^3+73.000000x^2+-89.000000x+64.000000 low: 0.093750 up: 0.609375 min: 41.409850 max: 56.322571
-58.000000x^3+9.000000x^2+41.000000x+92.000000 low: -1.390625 up: 0.406250 min: 106.252869 max: 208.365028
60.000000x^3+38.000000x^2+-31.000000x+90.000000 low: 0.062500 up: 1.421875 min: 85.560811 max: 295.226273
-86.000000x^3+-59.000000x^2+55.000000x+83.000000 low: -1.093750 up: 1.093750 min: -39.950745 max: 91.892208
57.000000x^3+-46.000000x^2+-55.000000x+-36.000000 low: 0.218750 up: 0.218750 min: -49.635773 max: -49.635773
-43.000000x^3+40.000000x^2+60.000000x+-12.000000 low: -0.171875 up: -0.109375 min: -20.912533 max: -18.027721
-44.000000x^3+35.000000x^2+81.000000x+82.000000 low: -1.187500 up: -0.968750 min: 76.380493 max: 108.848633
-71.000000x^3+17.000000x^2+-86.000000x+65.000000 low: 0.703125 up: 1.343750 min: -192.137848 max: -11.744823
-1.000000x^3+31.000000x^2+78.000000x+8.000000 low: -0.687500 up: 1.500000 min: -30.647705 max: 191.375000
-93.000000x^3+-35.000000x^2+95.000000x+-27.000000 low: -0.531250 up: 1.250000 min: -144.578125 max: 0.263292
